%YAML 1.1
%TAG !u! tag:unity3d.com,2011:
--- !u!1045 &1
EditorBuildSettings:
  m_ObjectHideFlags: 0
  serializedVersion: 2
  m_Scenes:
  - enabled: 1
    path: Assets/Scenes/SampleScene.unity
    guid: 9fc0d4010bbf28b4594072e72b8655ab
  m_configObjects:
    com.unity.xr.management.loader_settings: {fileID: 11400000, guid: f061805162a1946449bab70026a3f74f, type: 2}
    com.unity.xr.openxr.settings4: {fileID: 11400000, guid: e4bd51e75591ce64d9f64963a853381b, type: 2}
